…
Now we can merge all three ‘tables’ into one really wide table.

    summary <- ksi_summary %>%
      full_join(inj_summary) %>%
      full_join(col_summary) 

    ## Joining, by = "int_id"
    ## Joining, by = "int_id"

And take a glimpse of the final output

    print(summary)

    ## # A tibble: 57 x 13
    ## # Groups: int_id [?]
    ##    int_id ksi.E ksi.N ksi.S ksi.W inj.E inj.N inj.S inj.W col.E col.N
    ##     <int> <int> <int> <int> <int> <int> <int> <int> <int> <int> <int>
    ##  1  96010    NA    NA     1    NA     2     3     6     1     2     3
    ##  2  96370    NA     1    NA    NA     3     9     8     1     5    11
    ##  3  96407    NA    NA     2    NA     3     8    13     3     5     9
    ##  4  99928    NA    NA     1    NA     2     2     1     1     2     3
    ##  5 100373     1    NA    NA    NA     2    NA     2     1     2    NA
    ##  6 106686    NA     1     1     1     6     6    10    11     6     6
    ##  7 106837     1    NA    NA    NA     4     1     8     5     4     1
    ##  8 109525    NA    NA    NA     1     5     3     2     6     6     3
    ##  9 110084    NA     1    NA    NA     3     5     2     4     5     6
    ## 10 113863    NA    NA    NA     1     2    13     7     7     2    13
    ## # ... with 47 more rows, and 2 more variables: col.S <int>, col.W <int>
